{
	"projekt": "adsf",
	"datum": "2017-10-18 20:36:58",
	"tasks": [{
			"name": "Projektnamen ausdenken",
			"prio": 1,
			"status": 2,
			"tasks": []
		}, {
			"name": "JS lernen",
			"prio": 3,
			"status": 4,
			"tasks": []
		}, {
			"name": "todo List erstellen",
			"prio": 1,
			"status": 2,
			"tasks": []
		}
	]
}
